{
    "CLIENT_ID": "341497592302-s5gpnnf69u3i1thg382k8n7vcchut41i.apps.googleusercontent.com",
    "CLIENT_SECRET": "x-BbDBSuUUSKtkJMenS9tIOx",
    "REFRESH_TOKEN": "1/0xIrMbQ7aJPzgNhnH1WS7mhdzeJCNFloGR0IqrxSU_w",
    "MAIN_FOLDER_ID" : "0B3e3MBvG-RbJY094UEZUVUpKT3c",
    "SKUTOKEN_CLIENTID" : "warehouse",
    "SKUTOKEN_SECRETID" : "14869cbd094a253f2704dc1de6b1258f",
    "EmailID" : "sridevi_g@ndvor.com",
    "EmailPassword" : "168bda852a7029227118b65e",
    "ToEmailID": "biswa_b@ndvor.com",
    "ToErrorEmailID":"biswa_b@ndvor.com",     
    "EmailSubject" : "Shop Repairs Photo folder",    
    "ErrorEmailSubject": "Shop Repairs Photo folder Upload Failed",    
    "ResizedImage_Width" : 1000,
    "ResizedImage_Height" : 700,
    "ResizedImage_Quality" : 90,
    "LocationTypes" : "{'W'}",
    "GOLANGAPIURL" : "http://10.10.162.50:8083",
    "CurrentServerURL" : "http://10.60.6.79:8071",
    "NodeServiceURL" : "http://10.60.6.79",
    "NodeServicePort" : "5050",
    "NodeServerURL" : "http://10.60.6.79",
    "NodeServerPort" : "5050",
    "AS400URL" : "http://10.10.4.254:10380/web/services",
    "AS400CONTROLDATAURL" : "http://10.10.4.254:10160/web/services" ,
    "GOLANGAPI" : "http://10.10.162.50:8083",
    "GOLANGAPIURL_1"  :"http://10.10.162.50:8085",
    "GOLANG_UNLOCKURL" : "http://10.10.162.50:8081",
    "FILE" : "SCVALREF",
    "MANDETORYIMGCHECK" : "false",
    "EnableLogging": true,
    "MaxRecords": 100
}
